<?xml version="1.0" standalone="no"?>
<!DOCTYPE svg PUBLIC "-//W3C//DTD SVG 20010904//EN"
 "http://www.w3.org/TR/2001/REC-SVG-20010904/DTD/svg10.dtd">
<svg version="1.0" xmlns="http://www.w3.org/2000/svg"
 width="1000.000000pt" height="1000.000000pt" viewBox="0 0 1000.000000 1000.000000"
 preserveAspectRatio="xMidYMid meet">
<metadata>
Created by potrace 1.11, written by Peter Selinger 2001-2013
</metadata>
<g transform="translate(0.000000,1000.000000) scale(0.100000,-0.100000)"
fill="#000000" stroke="none">
<path d="M4943 9758 c-5 -7 -29 -47 -53 -88 -25 -41 -48 -76 -52 -78 -5 -2 -8
-8 -8 -13 0 -6 -9 -22 -19 -37 -11 -15 -131 -209 -267 -432 -136 -223 -283
-463 -327 -535 -44 -71 -87 -143 -97 -160 -10 -16 -70 -115 -135 -220 -65
-104 -154 -250 -199 -323 -44 -73 -93 -152 -108 -175 -15 -23 -31 -49 -35 -57
-4 -8 -33 -57 -65 -107 -32 -51 -67 -107 -77 -125 -10 -18 -85 -140 -165 -271
-88 -142 -144 -243 -139 -250 6 -10 57 -77 243 -317 15 -19 150 -195 300 -390
344 -446 323 -421 331 -412 4 4 10 23 13 42 3 19 14 73 25 120 11 47 22 96 25
110 4 26 56 260 81 365 8 33 37 166 65 295 62 281 53 240 84 380 15 63 29 129
32 145 3 17 19 89 36 160 16 72 31 139 33 150 1 11 13 63 25 115 12 52 23 106
25 120 2 14 4 26 6 28 1 1 2 5 3 10 2 7 29 122 31 132 4 18 19 86 20 90 1 6
13 65 19 95 2 11 9 38 14 60 6 22 13 52 16 68 3 15 7 35 10 45 3 9 7 28 10 42
8 43 25 121 46 215 11 50 22 101 25 115 2 14 20 95 40 180 19 85 47 207 61
270 14 63 32 147 40 185 9 39 17 77 19 85 2 8 15 71 30 140 15 69 33 149 41
179 14 57 14 71 -3 49z"/>
<path d="M6663 6867 c-22 -34 -86 -127 -140 -207 -55 -80 -141 -206 -191 -280
-50 -74 -95 -139 -100 -145 -4 -5 -46 -66 -92 -135 -46 -69 -87 -127 -90 -130
-9 -9 -150 -220 -150 -226 0 -3 26 -3 58 0 31 3 86 8 122 12 36 3 79 8 95 9
17 2 64 6 105 10 41 3 86 8 100 10 14 2 61 7 105 10 44 4 91 8 105 10 14 1 57
5 95 9 39 4 93 9 120 12 28 2 70 7 95 9 25 3 72 7 105 10 33 3 79 8 102 10 22
3 72 7 110 10 37 3 84 8 103 11 19 2 64 7 100 9 36 3 81 7 100 10 19 2 69 7
110 11 41 3 86 8 100 9 14 2 61 6 105 10 44 3 91 8 105 10 14 2 59 7 100 11
41 3 86 7 100 9 14 2 61 6 105 10 44 3 91 8 105 10 14 2 61 7 105 11 44 3 91
8 105 9 14 1 59 6 100 10 41 4 89 9 105 11 17 2 59 6 95 9 36 3 85 7 110 10
25 3 72 7 105 10 33 3 83 7 110 10 108 12 224 23 305 30 36 3 76 7 90 10 14 2
61 7 106 10 44 3 93 7 110 9 16 2 63 7 104 11 70 6 111 19 72 22 -20 2 -48 8
-112 24 -25 6 -52 12 -60 14 -8 2 -44 11 -80 20 -36 8 -74 18 -85 20 -64 15
-226 54 -250 61 -5 2 -23 6 -40 9 -16 3 -48 11 -70 17 -22 5 -47 11 -55 13 -8
2 -73 18 -145 35 -71 17 -140 34 -152 36 -12 2 -34 9 -48 14 -14 5 -25 7 -25
5 0 -2 -12 0 -27 6 -14 5 -38 12 -52 14 -28 4 -31 5 -484 114 -164 40 -307 74
-319 76 -11 3 -35 9 -52 14 -17 6 -42 12 -56 15 -14 2 -83 19 -155 36 -71 17
-141 34 -155 36 -14 3 -43 10 -65 16 -22 7 -47 13 -55 14 -8 1 -62 14 -120 28
-58 15 -114 28 -125 31 -11 2 -66 15 -122 29 -56 14 -112 27 -125 30 -13 2
-61 14 -108 26 -47 12 -94 24 -105 26 -16 3 -30 -11 -62 -59z"/>
<path d="M41 6063 c18 -21 36 -40 39 -43 3 -3 52 -61 110 -130 57 -69 107
-127 110 -130 3 -3 30 -34 60 -70 30 -36 57 -67 60 -70 3 -3 41 -48 84 -100
44 -52 84 -99 90 -105 6 -5 31 -35 56 -65 25 -30 47 -57 50 -60 3 -3 30 -34
60 -70 30 -36 57 -67 60 -70 3 -3 43 -50 90 -105 47 -55 95 -111 106 -125 12
-14 81 -95 154 -180 73 -85 142 -166 154 -180 11 -14 44 -52 71 -85 28 -33 52
-62 55 -65 3 -3 57 -66 120 -140 63 -74 119 -140 125 -146 5 -6 30 -35 55 -65
25 -29 77 -90 115 -134 39 -45 88 -103 110 -129 22 -27 45 -54 50 -60 6 -6 48
-55 94 -108 45 -54 86 -98 90 -98 9 0 277 94 586 207 39 14 95 33 125 43 30
10 66 23 80 29 30 12 407 147 465 166 22 7 53 18 69 25 33 12 55 -3 -349 236
-55 32 -109 64 -120 71 -11 6 -36 20 -55 31 -19 10 -82 47 -140 82 -118 70
-307 182 -360 213 -19 11 -47 27 -62 36 -15 9 -103 61 -195 115 -92 54 -214
126 -271 160 -57 34 -118 69 -135 80 -97 56 -391 229 -512 301 -77 46 -156 92
-175 103 -19 11 -111 65 -205 121 -154 91 -749 441 -792 466 -10 6 -46 27 -81
48 -35 20 -66 37 -69 37 -4 0 9 -17 28 -37z"/>
<path d="M6407 3978 c6 -7 86 -186 177 -398 92 -212 176 -405 188 -430 11 -25
33 -74 48 -110 24 -58 86 -199 250 -575 122 -281 153 -352 165 -380 7 -16 24
-56 39 -88 14 -32 26 -60 26 -62 0 -2 13 -33 29 -69 17 -35 60 -133 96 -217
37 -85 73 -167 80 -184 7 -16 27 -64 45 -105 17 -41 35 -82 40 -91 5 -10 21
-46 35 -80 15 -35 57 -134 95 -219 37 -85 96 -220 130 -300 35 -80 66 -149 70
-155 4 -5 11 -21 15 -35 4 -14 20 -52 35 -85 16 -33 40 -87 54 -120 l27 -60
-6 95 c-4 52 -8 113 -10 135 -3 22 -7 76 -10 120 -6 98 -14 204 -20 270 -5 59
-13 162 -20 260 -3 39 -8 95 -10 125 -3 30 -8 89 -11 130 -3 41 -7 95 -9 120
-2 24 -6 83 -10 130 -3 47 -8 103 -10 125 -3 22 -7 78 -10 125 -3 47 -8 101
-10 120 -2 19 -6 80 -10 135 -3 55 -8 118 -10 140 -2 22 -7 76 -10 120 -3 44
-8 98 -10 120 -3 22 -7 81 -10 130 -3 50 -8 113 -10 140 -3 28 -7 82 -10 120
-2 39 -7 96 -10 128 -3 31 -8 88 -10 125 -2 37 -6 90 -9 117 -2 28 -8 95 -11
150 -4 55 -9 111 -10 125 -2 14 -3 35 -4 46 -1 12 -9 24 -18 27 -26 8 -295 87
-313 92 -25 7 -443 130 -660 195 -113 33 -214 62 -225 65 -11 2 -42 11 -70 20
-76 25 -111 30 -98 13z"/>
<path d="M4935 2905 c-21 -19 -82 -75 -134 -123 -53 -49 -108 -100 -122 -113
-39 -36 -253 -235 -329 -305 -36 -34 -81 -76 -100 -94 -19 -18 -84 -78 -144
-134 -60 -55 -137 -126 -170 -157 -34 -31 -75 -70 -92 -85 -17 -16 -80 -74
-139 -129 -140 -130 -316 -293 -431 -400 -17 -16 -73 -68 -124 -115 -51 -47
-113 -104 -137 -127 -25 -23 -86 -80 -137 -126 -50 -47 -105 -98 -122 -113
-51 -48 -265 -247 -300 -279 -17 -16 -81 -75 -140 -130 -60 -55 -141 -131
-181 -168 -39 -38 -80 -75 -90 -83 -30 -23 5 -9 195 77 34 16 64 29 67 29 2 0
30 12 62 26 32 15 76 34 98 44 22 10 62 27 90 40 48 21 95 42 105 45 3 1 25
11 50 22 42 19 103 46 175 78 17 7 53 23 80 36 28 13 52 23 55 24 3 1 21 8 40
17 19 8 112 49 205 90 94 42 191 85 215 96 25 11 95 41 155 67 61 26 143 63
183 81 41 19 75 34 77 34 5 0 52 21 198 89 49 23 91 41 94 41 3 0 46 18 97 41
126 56 145 65 196 87 54 23 364 160 471 208 42 19 82 34 89 34 13 0 11 84 -14
570 -4 69 -9 161 -11 205 -3 44 -7 123 -9 175 -3 52 -8 149 -12 215 -3 66 -7
146 -8 177 -1 31 -4 59 -7 62 -2 3 -22 -10 -44 -29z"/>
</g>
</svg>
